// Jest Snapshot v1, https://goo.gl/fbAQLP

exports[`should correctly render expenses summary with 1 expense 1`] = `
<div
  className="page-header"
>
  <div
    className="container row page-header__container"
  >
    <div
      className="col s12 page-header__flex-wrapper"
    >
      <h2
        className="page-header__title"
      >
        Viewing 
        <span>
          1
        </span>
         
        expense
         totalling 
        <span>
          $2.35
        </span>
      </h2>
      <div
        className="page-header__actions"
      >
        <Link
          className="btn waves-effect waves-light"
          replace={false}
          to="/create"
        >
          Add Expense
        </Link>
      </div>
    </div>
  </div>
</div>
`;

exports[`should correctly render expenses summary with multiple expenses 1`] = `
<div
  className="page-header"
>
  <div
    className="container row page-header__container"
  >
    <div
      className="col s12 page-header__flex-wrapper"
    >
      <h2
        className="page-header__title"
      >
        Viewing 
        <span>
          23
        </span>
         
        expenses
         totalling 
        <span>
          $235,123,409.87
        </span>
      </h2>
      <div
        className="page-header__actions"
      >
        <Link
          className="btn waves-effect waves-light"
          replace={false}
          to="/create"
        >
          Add Expense
        </Link>
      </div>
    </div>
  </div>
</div>
`;
