// Jest Snapshot v1, https://goo.gl/fbAQLP

exports[`should render Header correctly 1`] = `
<header
  className="header row"
>
  <div
    className="col s12"
  >
    <div
      className="container header__content"
    >
      <div>
        <Link
          replace={false}
          to="/dashboard"
        >
          <h1
            className="header__title"
          >
            Expensify
          </h1>
        </Link>
        <p
          className="header__subtitle"
        >
          Get your expenses under control
        </p>
      </div>
      <button
        className="btn-flat header__button"
        onClick={[Function]}
      >
        Logout
      </button>
    </div>
  </div>
</header>
`;
